Running analysis for sample ERR2868172
Running FastQC...
Started analysis of ERR2868172_1.fastq.gz
Approx 5% complete for ERR2868172_1.fastq.gz
Approx 10% complete for ERR2868172_1.fastq.gz
Approx 15% complete for ERR2868172_1.fastq.gz
Approx 20% complete for ERR2868172_1.fastq.gz
Approx 25% complete for ERR2868172_1.fastq.gz
Approx 30% complete for ERR2868172_1.fastq.gz
Approx 35% complete for ERR2868172_1.fastq.gz
Approx 40% complete for ERR2868172_1.fastq.gz
Approx 45% complete for ERR2868172_1.fastq.gz
Approx 50% complete for ERR2868172_1.fastq.gz
Approx 55% complete for ERR2868172_1.fastq.gz
Approx 60% complete for ERR2868172_1.fastq.gz
Approx 65% complete for ERR2868172_1.fastq.gz
Approx 70% complete for ERR2868172_1.fastq.gz
Approx 75% complete for ERR2868172_1.fastq.gz
Approx 80% complete for ERR2868172_1.fastq.gz
Approx 85% complete for ERR2868172_1.fastq.gz
Approx 90% complete for ERR2868172_1.fastq.gz
Approx 95% complete for ERR2868172_1.fastq.gz
Approx 100% complete for ERR2868172_1.fastq.gz
Analysis complete for ERR2868172_1.fastq.gz
Started analysis of ERR2868172_2.fastq.gz
Approx 5% complete for ERR2868172_2.fastq.gz
Approx 10% complete for ERR2868172_2.fastq.gz
Approx 15% complete for ERR2868172_2.fastq.gz
Approx 20% complete for ERR2868172_2.fastq.gz
Approx 25% complete for ERR2868172_2.fastq.gz
Approx 30% complete for ERR2868172_2.fastq.gz
Approx 35% complete for ERR2868172_2.fastq.gz
Approx 40% complete for ERR2868172_2.fastq.gz
Approx 45% complete for ERR2868172_2.fastq.gz
Approx 50% complete for ERR2868172_2.fastq.gz
Approx 55% complete for ERR2868172_2.fastq.gz
Approx 60% complete for ERR2868172_2.fastq.gz
Approx 65% complete for ERR2868172_2.fastq.gz
Approx 70% complete for ERR2868172_2.fastq.gz
Approx 75% complete for ERR2868172_2.fastq.gz
Approx 80% complete for ERR2868172_2.fastq.gz
Approx 85% complete for ERR2868172_2.fastq.gz
Approx 90% complete for ERR2868172_2.fastq.gz
Approx 95% complete for ERR2868172_2.fastq.gz
Approx 100% complete for ERR2868172_2.fastq.gz
Analysis complete for ERR2868172_2.fastq.gz

Running cutadapt...

Running STAR index...
Nov 18 20:36:40 ..... started STAR run
Nov 18 20:36:40 ... starting to generate Genome files
Nov 18 20:36:40 ... starting to sort Suffix Array. This may take a long time...
Nov 18 20:36:40 ... sorting Suffix Array chunks and saving them to disk...
Nov 18 20:36:41 ... loading chunks from disk, packing SA...
Nov 18 20:36:41 ... finished generating suffix array
Nov 18 20:36:41 ... generating Suffix Array index
Nov 18 20:36:41 ... completed Suffix Array index
Nov 18 20:36:41 ... writing Genome to disk ...
Nov 18 20:36:41 ... writing Suffix Array to disk ...
Nov 18 20:36:41 ... writing SAindex to disk
Nov 18 20:36:41 ..... finished successfully

Running STAR alignment...
Nov 18 20:36:41 ..... started STAR run
Nov 18 20:36:41 ..... loading genome
Nov 18 20:36:41 ..... started mapping
Nov 18 20:37:22 ..... finished mapping
Nov 18 20:37:22 ..... finished successfully

Running analysis for sample ERR2868173
Running FastQC...
Started analysis of ERR2868173_1.fastq.gz
Approx 5% complete for ERR2868173_1.fastq.gz
Approx 10% complete for ERR2868173_1.fastq.gz
Approx 15% complete for ERR2868173_1.fastq.gz
Approx 20% complete for ERR2868173_1.fastq.gz
Approx 25% complete for ERR2868173_1.fastq.gz
Approx 30% complete for ERR2868173_1.fastq.gz
Approx 35% complete for ERR2868173_1.fastq.gz
Approx 40% complete for ERR2868173_1.fastq.gz
Approx 45% complete for ERR2868173_1.fastq.gz
Approx 50% complete for ERR2868173_1.fastq.gz
Approx 55% complete for ERR2868173_1.fastq.gz
Approx 60% complete for ERR2868173_1.fastq.gz
Approx 65% complete for ERR2868173_1.fastq.gz
Approx 70% complete for ERR2868173_1.fastq.gz
Approx 75% complete for ERR2868173_1.fastq.gz
Approx 80% complete for ERR2868173_1.fastq.gz
Approx 85% complete for ERR2868173_1.fastq.gz
Approx 90% complete for ERR2868173_1.fastq.gz
Approx 95% complete for ERR2868173_1.fastq.gz
Approx 100% complete for ERR2868173_1.fastq.gz
Analysis complete for ERR2868173_1.fastq.gz
Started analysis of ERR2868173_2.fastq.gz
Approx 5% complete for ERR2868173_2.fastq.gz
Approx 10% complete for ERR2868173_2.fastq.gz
Approx 15% complete for ERR2868173_2.fastq.gz
Approx 20% complete for ERR2868173_2.fastq.gz
Approx 25% complete for ERR2868173_2.fastq.gz
Approx 30% complete for ERR2868173_2.fastq.gz
Approx 35% complete for ERR2868173_2.fastq.gz
Approx 40% complete for ERR2868173_2.fastq.gz
Approx 45% complete for ERR2868173_2.fastq.gz
Approx 50% complete for ERR2868173_2.fastq.gz
Approx 55% complete for ERR2868173_2.fastq.gz
Approx 60% complete for ERR2868173_2.fastq.gz
Approx 65% complete for ERR2868173_2.fastq.gz
Approx 70% complete for ERR2868173_2.fastq.gz
Approx 75% complete for ERR2868173_2.fastq.gz
Approx 80% complete for ERR2868173_2.fastq.gz
Approx 85% complete for ERR2868173_2.fastq.gz
Approx 90% complete for ERR2868173_2.fastq.gz
Approx 95% complete for ERR2868173_2.fastq.gz
Approx 100% complete for ERR2868173_2.fastq.gz
Analysis complete for ERR2868173_2.fastq.gz

Running cutadapt...

Running STAR index...
Nov 18 20:37:42 ..... started STAR run
Nov 18 20:37:42 ... starting to generate Genome files
Nov 18 20:37:42 ... starting to sort Suffix Array. This may take a long time...
Nov 18 20:37:42 ... sorting Suffix Array chunks and saving them to disk...
Nov 18 20:37:43 ... loading chunks from disk, packing SA...
Nov 18 20:37:43 ... finished generating suffix array
Nov 18 20:37:43 ... generating Suffix Array index
Nov 18 20:37:43 ... completed Suffix Array index
Nov 18 20:37:43 ... writing Genome to disk ...
Nov 18 20:37:43 ... writing Suffix Array to disk ...
Nov 18 20:37:43 ... writing SAindex to disk
Nov 18 20:37:43 ..... finished successfully

Running STAR alignment...
Nov 18 20:37:43 ..... started STAR run
Nov 18 20:37:43 ..... loading genome
Nov 18 20:37:44 ..... started mapping
Nov 18 20:38:29 ..... finished mapping
Nov 18 20:38:29 ..... finished successfully

Running analysis for sample ERR2868174
Running FastQC...
Started analysis of ERR2868174_1.fastq.gz
Approx 5% complete for ERR2868174_1.fastq.gz
Approx 10% complete for ERR2868174_1.fastq.gz
Approx 15% complete for ERR2868174_1.fastq.gz
Approx 20% complete for ERR2868174_1.fastq.gz
Approx 25% complete for ERR2868174_1.fastq.gz
Approx 30% complete for ERR2868174_1.fastq.gz
Approx 35% complete for ERR2868174_1.fastq.gz
Approx 40% complete for ERR2868174_1.fastq.gz
Approx 45% complete for ERR2868174_1.fastq.gz
Approx 50% complete for ERR2868174_1.fastq.gz
Approx 55% complete for ERR2868174_1.fastq.gz
Approx 60% complete for ERR2868174_1.fastq.gz
Approx 65% complete for ERR2868174_1.fastq.gz
Approx 70% complete for ERR2868174_1.fastq.gz
Approx 75% complete for ERR2868174_1.fastq.gz
Approx 80% complete for ERR2868174_1.fastq.gz
Approx 85% complete for ERR2868174_1.fastq.gz
Approx 90% complete for ERR2868174_1.fastq.gz
Approx 95% complete for ERR2868174_1.fastq.gz
Approx 100% complete for ERR2868174_1.fastq.gz
Analysis complete for ERR2868174_1.fastq.gz
Started analysis of ERR2868174_2.fastq.gz
Approx 5% complete for ERR2868174_2.fastq.gz
Approx 10% complete for ERR2868174_2.fastq.gz
Approx 15% complete for ERR2868174_2.fastq.gz
Approx 20% complete for ERR2868174_2.fastq.gz
Approx 25% complete for ERR2868174_2.fastq.gz
Approx 30% complete for ERR2868174_2.fastq.gz
Approx 35% complete for ERR2868174_2.fastq.gz
Approx 40% complete for ERR2868174_2.fastq.gz
Approx 45% complete for ERR2868174_2.fastq.gz
Approx 50% complete for ERR2868174_2.fastq.gz
Approx 55% complete for ERR2868174_2.fastq.gz
Approx 60% complete for ERR2868174_2.fastq.gz
Approx 65% complete for ERR2868174_2.fastq.gz
Approx 70% complete for ERR2868174_2.fastq.gz
Approx 75% complete for ERR2868174_2.fastq.gz
Approx 80% complete for ERR2868174_2.fastq.gz
Approx 85% complete for ERR2868174_2.fastq.gz
Approx 90% complete for ERR2868174_2.fastq.gz
Approx 95% complete for ERR2868174_2.fastq.gz
Approx 100% complete for ERR2868174_2.fastq.gz
Analysis complete for ERR2868174_2.fastq.gz

Running cutadapt...

Running STAR index...
Nov 18 20:38:49 ..... started STAR run
Nov 18 20:38:49 ... starting to generate Genome files
Nov 18 20:38:49 ... starting to sort Suffix Array. This may take a long time...
Nov 18 20:38:49 ... sorting Suffix Array chunks and saving them to disk...
Nov 18 20:38:50 ... loading chunks from disk, packing SA...
Nov 18 20:38:50 ... finished generating suffix array
Nov 18 20:38:50 ... generating Suffix Array index
Nov 18 20:38:50 ... completed Suffix Array index
Nov 18 20:38:50 ... writing Genome to disk ...
Nov 18 20:38:50 ... writing Suffix Array to disk ...
Nov 18 20:38:51 ... writing SAindex to disk
Nov 18 20:38:51 ..... finished successfully

Running STAR alignment...
Nov 18 20:38:51 ..... started STAR run
Nov 18 20:38:51 ..... loading genome
Nov 18 20:38:51 ..... started mapping
Nov 18 20:39:34 ..... finished mapping
Nov 18 20:39:34 ..... finished successfully

Running multiqc...
[INFO   ]         multiqc : This is MultiQC v1.9
[INFO   ]         multiqc : Template    : default
[INFO   ]         multiqc : Searching   : /home/cleon/testsim
[INFO   ]            star : Found 3 reports
[INFO   ]        cutadapt : Found 3 reports
[INFO   ]          fastqc : Found 6 reports
[INFO   ]         multiqc : Compressing plot data
[WARNING]         multiqc : Previous MultiQC output found! Adjusting filenames..
[WARNING]         multiqc : Use -f or --force to overwrite existing reports instead
[INFO   ]         multiqc : Report      : out/multiqc/multiqc_report_1.html
[INFO   ]         multiqc : Data        : out/multiqc/multiqc_data_1
[INFO   ]         multiqc : MultiQC complete

Pipeline finished
